[
  {
    "name": "Oh my Deer",
    "price": 14.99,
    "imgUrl":"product1.png",
    "id": 1,
    "color": "black"
  },
    {
    "name": "Awaken the Hero",
    "price": 17.59,
    "imgUrl":"product3.png",
    "id": 2,
    "color": "black"
  },
    {
    "name": "Ravenna",
    "price": 14.99,
    "imgUrl":"product5.png",
    "id": 3,
    "color": "black"
  },
    {
    "name": "Caribou",
    "price": 14.99,
    "imgUrl":"product4.png",
    "id": 4,
    "color": "black"
  },
    {
    "name": "Oh my Deer",
    "price": 14.99,
    "imgUrl":"product5.png",
    "id": 5,
    "color": "black"
  },
    {
    "name": "Aqualung",
    "price": 14.99,
    "imgUrl":"product6.png",
    "id": 6,
    "color": "black"
  },
    {
    "name": "Strange to ears",
    "price": 14.99,
    "imgUrl":"product3.png",
    "id": 7,
    "color": "black"
  },
    {
    "name": "Oh my Deer",
    "price": 14.99,
    "imgUrl":"product1.png",
    "id": 8,
    "color": "black"
  },
    {
    "name": "Oh my Deer",
    "price": 14.99,
    "imgUrl":"product4.png",
    "id": 9,
    "color": "black"
  },
    {
    "name": "Ravenna",
    "price": 14.99,
    "imgUrl":"product6.png",
    "id": 10,
    "color": "black"
  }

]
